HAD_T1G2/DEC/simulation/qsim/parallel_decoder.msim.vcd
$comment
	File created using the following command:
		vcd file parallel_decoder.msim.vcd -direction
$end
$date
	Sun Nov 13 14:33:54 2022
$end
$version
	ModelSim Version 2020.1
$end
$timescale
	1ps
$end

$scope module full_parallel_decoder_vhd_vec_tst $end
$var wire 1 ! m [3] $end
$var wire 1 " m [2] $end
$var wire 1 # m [1] $end
$var wire 1 $ m [0] $end
$var wire 1 % valid $end
$var wire 1 & y [7] $end
$var wire 1 ' y [6] $end
$var wire 1 ( y [5] $end
$var wire 1 ) y [4] $end
$var wire 1 * y [3] $end
$var wire 1 + y [2] $end
$var wire 1 , y [1] $end
$var wire 1 - y [0] $end

$scope module i1 $end
$var wire 1 . gnd $end
$var wire 1 / vcc $end
$var wire 1 0 unknown $end
$var wire 1 1 devoe $end
$var wire 1 2 devclrn $end
$var wire 1 3 devpor $end
$var wire 1 4 ww_devoe $end
$var wire 1 5 ww_devclrn $end
$var wire 1 6 ww_devpor $end
$var wire 1 7 ww_valid $end
$var wire 1 8 ww_y [7] $end
$var wire 1 9 ww_y [6] $end
$var wire 1 : ww_y [5] $end
$var wire 1 ; ww_y [4] $end
$var wire 1 < ww_y [3] $end
$var wire 1 = ww_y [2] $end
$var wire 1 > ww_y [1] $end
$var wire 1 ? ww_y [0] $end
$var wire 1 @ ww_m [3] $end
$var wire 1 A ww_m [2] $end
$var wire 1 B ww_m [1] $end
$var wire 1 C ww_m [0] $end
$var wire 1 D \valid~output_o\ $end
$var wire 1 E \m[3]~output_o\ $end
$var wire 1 F \m[2]~output_o\ $end
$var wire 1 G \m[1]~output_o\ $end
$var wire 1 H \m[0]~output_o\ $end
$var wire 1 I \y[4]~input_o\ $end
$var wire 1 J \y[7]~input_o\ $end
$var wire 1 K \y[6]~input_o\ $end
$var wire 1 L \y[5]~input_o\ $end
$var wire 1 M \inst19|inst2~0_combout\ $end
$var wire 1 N \inst19|inst26~1_combout\ $end
$var wire 1 O \y[0]~input_o\ $end
$var wire 1 P \y[1]~input_o\ $end
$var wire 1 Q \y[2]~input_o\ $end
$var wire 1 R \y[3]~input_o\ $end
$var wire 1 S \inst19|inst2~1_combout\ $end
$var wire 1 T \inst19|inst26~0_combout\ $end
$var wire 1 U \inst19|inst26~2_combout\ $end
$var wire 1 V \inst20|inst2~0_combout\ $end
$var wire 1 W \inst20|inst2~1_combout\ $end
$var wire 1 X \inst20|inst26~1_combout\ $end
$var wire 1 Y \inst20|inst26~0_combout\ $end
$var wire 1 Z \inst20|inst26~2_combout\ $end
$var wire 1 [ \inst21|inst2~0_combout\ $end
$var wire 1 \ \inst21|inst26~0_combout\ $end
$var wire 1 ] \inst21|inst26~1_combout\ $end
$var wire 1 ^ \inst21|inst2~1_combout\ $end
$var wire 1 _ \inst21|inst26~2_combout\ $end
$var wire 1 ` \inst4~0_combout\ $end
$var wire 1 a \inst19|inst2~2_combout\ $end
$var wire 1 b \m_1~combout\ $end
$var wire 1 c \inst20|inst2~2_combout\ $end
$var wire 1 d \m_2~combout\ $end
$var wire 1 e \inst21|inst2~2_combout\ $end
$var wire 1 f \m_3~combout\ $end
$var wire 1 g \inst15|fA11|hA0|and20|y~0_combout\ $end
$var wire 1 h \inst15|fA20|hA0|and20|y~1_combout\ $end
$var wire 1 i \inst15|fA20|hA0|and20|y~0_combout\ $end
$var wire 1 j \inst15|fA20|hA0|and20|y~2_combout\ $end
$var wire 1 k \inst15|fA20|fA10|or20|y~0_combout\ $end
$var wire 1 l \inst13~combout\ $end
$var wire 1 m \inst12~combout\ $end
$var wire 1 n \inst15|fA10|fA0|xor21|y~0_combout\ $end
$var wire 1 o \inst15|hA02|and20|y~combout\ $end
$var wire 1 p \inst15|fA20|fA10|or20|y~1_combout\ $end
$var wire 1 q \inst15|fA10|fA0|and20|y~0_combout\ $end
$var wire 1 r \inst15|fA10|fA0|and20|y~1_combout\ $end
$var wire 1 s \inst15|fA11|fA0|and20|y~combout\ $end
$var wire 1 t \inst16~combout\ $end
$var wire 1 u \ALT_INV_inst4~0_combout\ $end
$upscope $end
$upscope $end
$enddefinitions $end
#0
$dumpvars
1%
0.
1/
x0
11
12
13
14
15
16
17
1D
0E
0F
0G
0H
0I
0J
0K
0L
0M
1N
0O
0P
0Q
0R
0S
1T
1U
0V
0W
1X
1Y
1Z
0[
1\
1]
0^
1_
0`
0a
0b
0c
0d
0e
0f
0g
0h
0i
0j
0k
0l
0m
0n
0o
0p
0q
0r
0s
0t
1u
0&
0'
0(
0)
0*
0+
0,
0-
08
09
0:
0;
0<
0=
0>
0?
0@
0A
0B
0C
0!
0"
0#
0$
$end
#60000
1'
1)
1+
1-
1?
1=
1;
19
1K
1I
1Q
1O
1h
1S
0T
1g
1n
1M
0N
1l
0h
1k
1a
1j
1b
1p
0j
1t
0g
0l
1h
0k
1E
0p
1@
1H
1!
0t
1C
1$
0H
0C
0$
#120000
0'
0+
1(
1,
1>
0=
1:
09
0K
1L
0Q
1P
0h
1k
0S
1T
1W
0Y
1g
1m
1q
0M
1N
1V
0X
1l
1r
0n
1h
1c
0a
1p
0b
1d
0p
1t
0m
0q
0g
0l
0r
0t
0h
0k
1n
1F
0E
1A
0@
1H
1"
0!
1C
0H
1$
0C
0$
#180000
1'
1+
0)
0-
0?
1=
0;
19
1K
0I
1Q
0O
1h
1S
0T
1g
0n
1M
0N
1l
1n
0h
1a
1b
0g
1j
0l
0n
1p
1h
1E
0j
1t
0p
1@
1!
0t
1H
1C
0H
1$
0C
0$
#240000
0'
1-
0(
1*
1?
1<
0:
09
0K
0L
1R
1O
0h
0S
1T
0W
1Y
1g
0\
1^
1m
0M
1N
0V
1X
1[
0]
1l
1n
1e
1h
1k
0c
0a
1j
0b
0d
0j
1f
1p
1t
0m
1j
0l
0n
1G
0F
0E
1B
0A
0@
1H
1#
0"
0!
1C
1$
#300000
1'
0-
0+
1)
0?
0=
1;
19
1K
1I
0Q
0O
0h
1S
0T
0g
1n
1M
0N
1l
1h
0k
1a
0j
1b
0p
1j
1p
0t
1g
0j
0l
0p
0h
1k
1t
1E
1p
0t
1@
0H
1!
1t
0C
1H
0$
1C
0H
1$
0C
1H
0$
1C
1$
#360000
0'
1+
1(
0,
0>
1=
1:
09
0K
1L
1Q
0P
1h
0k
0S
1T
1W
0Y
0g
1m
1q
0M
1N
1V
0X
1l
1r
0n
0h
1c
0a
0p
0b
1d
0m
0q
1g
0l
0r
0t
1h
1k
1n
1F
0E
1p
1A
0@
1"
0!
1t
0H
0C
0$
1H
1C
1$
#420000
1'
0+
1-
0)
1?
0=
0;
19
1K
0I
0Q
1O
0h
1S
0T
0g
0n
1M
0N
1l
1n
0p
1h
1a
1b
0t
1p
1t
1g
0l
0n
0h
0H
1E
1j
0p
0C
1@
1H
0$
1!
0t
1p
1C
1$
1t
0H
0C
1H
0$
1C
1$
#480000
1+
1)
1,
1&
1>
1=
1;
18
1J
1I
1Q
1P
1h
0S
1T
0W
1Y
0g
1\
0^
0M
1N
0V
1X
0[
1]
0e
0h
0k
0c
0a
0j
0b
0d
0p
1j
0f
0t
1k
1m
1q
0j
1l
1o
1s
1n
0G
0F
0E
1t
0B
0A
0@
0H
0#
0"
0!
0C
0$
1H
1C
1$
#540000
0+
0)
0'
0-
0?
0=
0;
09
0K
0I
0Q
0O
1h
0k
0s
1S
0T
1g
0o
0q
1M
0N
0l
0n
0h
1k
1a
0t
1j
1b
0j
1p
1t
0p
0g
1l
1o
0H
1n
1h
0k
0t
0C
1E
0$
1p
1@
1H
1!
1t
1C
0H
1$
0C
0$
1H
1C
1$
#600000
1+
1'
0,
0(
0>
1=
0:
19
1K
0L
1Q
0P
0h
0S
1T
1W
0Y
1g
0o
0m
0M
1N
1V
0X
0l
0n
0p
1h
1c
0a
0b
1d
0t
1k
1m
0g
1l
1o
0h
0k
1n
0H
1F
0E
1p
0C
1A
0@
0$
1"
0!
1t
1H
1C
1$
#660000
0+
0'
1)
1-
1?
0=
1;
09
0K
1I
0Q
1O
1h
1k
1s
1S
0T
1g
0o
1q
1M
0N
0l
0s
0h
1a
0t
1b
1t
0g
1j
1l
1o
0H
1s
1h
0C
1H
1E
0$
0j
0t
1C
1@
1$
1!
0p
1t
0H
0C
0$
1H
1C
1$
#720000
1'
0-
1(
0*
0?
0<
1:
19
1K
1L
0R
0O
0h
0k
0s
0S
1T
0W
1Y
1g
0o
0\
1^
0m
0q
0M
1N
0V
1X
1[
0]
0l
0n
1e
1h
1k
0c
0a
0t
1j
0b
0d
0j
1f
1p
1t
0p
0k
1m
1q
1j
1l
0H
1n
0t
0C
1G
0F
0E
0$
1p
1B
0A
0@
1H
1#
0"
0!
1t
1C
0H
1$
0C
0$
1H
1C
1$
#780000
0'
1-
1+
0)
1?
1=
0;
09
0K
0I
1Q
1O
0h
1k
1S
0T
0g
1o
0q
1M
0N
0l
0n
1h
0k
1a
0j
1b
1j
0p
0t
1p
1g
0j
1l
0o
1n
0p
0h
1k
1t
1E
0t
1p
1@
0H
1!
1t
0C
1H
0$
1C
0H
1$
0C
1H
0$
1C
1$
#840000
1'
0+
0(
1,
1>
0=
0:
19
1K
0L
0Q
1P
1h
0S
1T
1W
0Y
0g
1o
0m
0M
1N
1V
0X
0l
0n
0p
1s
0h
1c
0a
0b
1d
0k
1m
0s
1g
1l
0o
1h
1k
0t
1n
1F
0E
1p
1A
0@
1"
0!
1t
0H
0C
0$
1H
1C
1$
#900000
0'
1+
0-
1)
0?
1=
1;
09
0K
1I
1Q
0O
0h
0k
1S
0T
0g
1o
1q
1M
0N
0l
1h
1a
1b
1g
1l
0o
0p
0h
1E
1j
0t
1@
1!
1p
1t
0H
0C
0$
1H
1C
1$
#960000
0+
0)
0,
0&
0>
0=
0;
08
0J
0I
0Q
0P
1h
1k
0S
1T
0W
1Y
0g
1o
1\
0^
0q
0M
1N
0V
1X
0[
1]
1r
0t
0r
0e
0h
0k
0c
0a
0j
0b
0d
1j
0f
1t
0m
0j
0l
0o
0H
0p
0n
0C
1H
0G
0F
0E
0$
0t
1C
0B
0A
0@
1$
0#
0"
0!
0H
0C
0$
