HAD_T1G2/DEC/simulation/qsim/parallel_decoder.msim.vcd
$comment
	File created using the following command:
		vcd file parallel_decoder.msim.vcd -direction
$end
$date
	Sun Nov 13 17:03:29 2022
$end
$version
	ModelSim Version 2020.1
$end
$timescale
	1ps
$end

$scope module full_parallel_decoder_vhd_vec_tst $end
$var wire 1 ! m [3] $end
$var wire 1 " m [2] $end
$var wire 1 # m [1] $end
$var wire 1 $ m [0] $end
$var wire 1 % valid $end
$var wire 1 & y [7] $end
$var wire 1 ' y [6] $end
$var wire 1 ( y [5] $end
$var wire 1 ) y [4] $end
$var wire 1 * y [3] $end
$var wire 1 + y [2] $end
$var wire 1 , y [1] $end
$var wire 1 - y [0] $end

$scope module i1 $end
$var wire 1 . gnd $end
$var wire 1 / vcc $end
$var wire 1 0 unknown $end
$var wire 1 1 devoe $end
$var wire 1 2 devclrn $end
$var wire 1 3 devpor $end
$var wire 1 4 ww_devoe $end
$var wire 1 5 ww_devclrn $end
$var wire 1 6 ww_devpor $end
$var wire 1 7 ww_y [7] $end
$var wire 1 8 ww_y [6] $end
$var wire 1 9 ww_y [5] $end
$var wire 1 : ww_y [4] $end
$var wire 1 ; ww_y [3] $end
$var wire 1 < ww_y [2] $end
$var wire 1 = ww_y [1] $end
$var wire 1 > ww_y [0] $end
$var wire 1 ? ww_valid $end
$var wire 1 @ ww_m [3] $end
$var wire 1 A ww_m [2] $end
$var wire 1 B ww_m [1] $end
$var wire 1 C ww_m [0] $end
$var wire 1 D \valid~output_o\ $end
$var wire 1 E \m[0]~output_o\ $end
$var wire 1 F \m[1]~output_o\ $end
$var wire 1 G \m[2]~output_o\ $end
$var wire 1 H \m[3]~output_o\ $end
$var wire 1 I \y[3]~input_o\ $end
$var wire 1 J \y[2]~input_o\ $end
$var wire 1 K \b2v_inst5|c2~0_combout\ $end
$var wire 1 L \y[7]~input_o\ $end
$var wire 1 M \y[6]~input_o\ $end
$var wire 1 N \b2v_inst5|c0~0_combout\ $end
$var wire 1 O \y[0]~input_o\ $end
$var wire 1 P \y[1]~input_o\ $end
$var wire 1 Q \b2v_inst5|c3~0_combout\ $end
$var wire 1 R \y[4]~input_o\ $end
$var wire 1 S \y[5]~input_o\ $end
$var wire 1 T \b2v_inst5|c1~0_combout\ $end
$var wire 1 U \b2v_inst5|m_is_error~0_combout\ $end
$var wire 1 V \b2v_inst6|c3~combout\ $end
$var wire 1 W \b2v_inst6|c1~combout\ $end
$var wire 1 X \b2v_inst6|c2~combout\ $end
$var wire 1 Y \b2v_inst6|c0~combout\ $end
$var wire 1 Z \b2v_inst6|m_is_error~0_combout\ $end
$var wire 1 [ \b2v_inst18|c0~combout\ $end
$var wire 1 \ \b2v_inst18|c2~combout\ $end
$var wire 1 ] \b2v_inst18|c1~combout\ $end
$var wire 1 ^ \b2v_inst18|c3~combout\ $end
$var wire 1 _ \b2v_inst18|m_is_error~0_combout\ $end
$var wire 1 ` \valid_ALTERA_SYNTHESIZED~0_combout\ $end
$var wire 1 a \b2v_inst5|m_is_one~0_combout\ $end
$var wire 1 b \b2v_inst6|m_is_one~0_combout\ $end
$var wire 1 c \m_ALTERA_SYNTHESIZED[2]~0_combout\ $end
$var wire 1 d \b2v_inst15|hA01|and20|y~combout\ $end
$var wire 1 e \b2v_inst15|fA10|fA0|and20|y~combout\ $end
$var wire 1 f \b2v_inst18|m_is_one~0_combout\ $end
$var wire 1 g \d[7]~0_combout\ $end
$var wire 1 h \b2v_inst15|hA02|and20|y~combout\ $end
$var wire 1 i \b2v_inst15|fA11|fA0|xor20|y~combout\ $end
$var wire 1 j \b2v_inst15|fA10|fA0|xor21|y~0_combout\ $end
$var wire 1 k \b2v_inst15|fA10|fA0|xor21|y~combout\ $end
$var wire 1 l \b2v_inst15|fA11|hA0|and20|y~combout\ $end
$var wire 1 m \b2v_inst15|fA20|hA0|and20|y~combout\ $end
$var wire 1 n \b2v_inst15|fA20|fA10|or20|y~0_combout\ $end
$var wire 1 o \b2v_inst15|hA03|and20|y~combout\ $end
$var wire 1 p \m_ALTERA_SYNTHESIZED~1_combout\ $end
$var wire 1 q \b2v_inst|z\ [7] $end
$var wire 1 r \b2v_inst|z\ [6] $end
$var wire 1 s \b2v_inst|z\ [5] $end
$var wire 1 t \b2v_inst|z\ [4] $end
$var wire 1 u \b2v_inst|z\ [3] $end
$var wire 1 v \b2v_inst|z\ [2] $end
$var wire 1 w \b2v_inst|z\ [1] $end
$var wire 1 x \b2v_inst|z\ [0] $end
$var wire 1 y m_ALTERA_SYNTHESIZED [3] $end
$var wire 1 z m_ALTERA_SYNTHESIZED [2] $end
$var wire 1 { m_ALTERA_SYNTHESIZED [1] $end
$var wire 1 | m_ALTERA_SYNTHESIZED [0] $end
$var wire 1 } \ALT_INV_valid_ALTERA_SYNTHESIZED~0_combout\ $end
$upscope $end
$upscope $end
$enddefinitions $end
#0
$dumpvars
1%
0.
1/
x0
11
12
13
14
15
16
1?
1D
0E
0F
0G
0H
0I
0J
0K
0L
0M
0N
0O
0P
0Q
0R
0S
0T
1U
0V
0W
0X
0Y
1Z
0[
0\
0]
0^
1_
0`
0a
0b
0c
0d
0e
0f
0g
0h
0i
0j
0k
0l
0m
0n
0o
0p
1}
0&
0'
0(
0)
0*
0+
0,
0-
07
08
09
0:
0;
0<
0=
0>
0@
0A
0B
0C
xq
xr
xs
xt
xu
xv
0w
xx
0y
xz
0{
x|
0!
0"
0#
0$
$end
#60000
1'
1)
1+
1-
1>
1<
1:
18
1M
1R
1J
1O
1Q
1g
1K
1T
1N
1j
1l
1a
1y
1k
1n
0g
0j
0l
0n
0k
1p
1H
0p
1@
1!
1E
1C
0E
1$
0C
0$
#120000
0'
0+
1(
1,
1=
0<
19
08
0M
1S
0J
1P
0Q
1X
0K
1V
0T
1Y
0N
1W
1j
1l
1b
0a
0y
1c
1k
1n
1w
0j
0l
1o
0n
0k
0o
1p
1G
0H
0p
1A
0@
1"
0!
1E
1C
0E
1$
0C
0$
#180000
1'
1+
0)
0-
0>
1<
0:
18
1M
0R
1J
0O
1Q
1g
1K
1T
1N
1j
1l
1a
1y
1k
1n
0g
0j
0l
0n
0k
1p
1H
0p
1@
1!
1E
1C
0E
1$
0C
0$
#240000
0'
1-
0(
1*
1>
1;
09
08
0M
0S
1I
1O
0Q
0V
1^
1g
0K
0X
1[
0T
0Y
1\
0N
0W
1]
1j
1l
1f
0b
0a
0y
0c
1{
1k
1n
0g
0j
0l
0n
0k
1p
1F
0G
0H
0p
1B
0A
0@
1#
0"
0!
1E
1C
0E
1$
0C
0$
#300000
1'
0-
0+
1)
0>
0<
1:
18
1M
1R
0J
0O
1Q
1g
1K
1T
1N
1j
1l
1a
1y
1k
1n
0g
0j
0l
0n
0k
1p
1H
0p
1@
1!
1E
1C
0E
1$
0C
0$
#360000
0'
1+
1(
0,
0=
1<
19
08
0M
1S
1J
0P
0Q
1X
0K
1V
0T
1Y
0N
1W
1j
1l
1b
0a
0y
1c
1k
1n
0w
0j
0l
1o
0n
0k
0o
1p
1G
0H
0p
1A
0@
1"
0!
1E
1C
0E
1$
0C
0$
#420000
1'
0+
1-
0)
1>
0<
0:
18
1M
0R
0J
1O
1Q
1g
1K
1T
1N
1j
1l
1a
1y
1k
1n
0g
0j
0l
0n
0k
1p
1H
0p
1@
1!
1E
1C
0E
1$
0C
0$
#480000
1+
1)
1,
1&
1=
1<
1:
17
1L
1R
1J
1P
0Q
0X
0\
0K
0V
0]
0T
0W
0^
0N
0Y
0[
1j
1l
0f
0b
0a
0y
0c
0{
1k
1n
1d
1g
1h
0l
1o
0n
1e
0k
0F
0G
0H
1p
0B
0A
0@
0#
0"
0!
1E
1C
1$
#540000
0+
0)
0'
0-
0>
0<
0:
08
0M
0R
0J
0O
1Q
0g
0o
1K
0h
1T
0d
1N
0e
0j
1j
1l
0p
1a
1y
1k
1n
1d
1g
1h
0l
1o
0E
0n
1e
0k
0C
1H
0$
1p
1@
1!
1E
1C
1$
#600000
1+
1'
0,
0(
0=
1<
09
18
1M
0S
1J
0P
0Q
1X
1i
0o
0K
1V
0h
0T
1Y
0d
0N
1W
0e
0j
1j
0i
1l
0p
1b
0a
0y
1c
1k
1n
1w
1d
1h
0l
0E
0n
1e
0k
1o
1p
0C
1G
0H
0$
1A
0@
1"
0!
1E
1C
1$
#660000
0+
0'
1)
1-
1>
0<
1:
08
0M
1R
0J
1O
1Q
0g
0o
1K
0h
1T
0d
1N
0e
0j
1j
1l
0p
1a
1y
1k
1n
1d
1g
1h
0l
1o
0E
0n
1e
0k
0C
1H
0$
1p
1@
1!
1E
1C
1$
#720000
1'
0-
1(
0*
0>
0;
19
18
1M
1S
0I
0O
0Q
0V
1^
0g
0o
0K
0X
1[
0h
0T
0Y
1\
0d
0N
0W
1]
0e
0j
1j
1l
0p
1f
0b
0a
0y
0c
1{
1k
1n
1d
1g
1h
0l
1o
0E
0n
1e
0k
0C
1F
0G
0H
0$
1p
1B
0A
0@
1#
0"
0!
1E
1C
1$
#780000
0'
1-
1+
0)
1>
1<
0:
08
0M
0R
1J
1O
1Q
0g
0o
1K
0h
1T
0d
1N
0e
0j
1j
1l
0p
1a
1y
1k
1n
1d
1g
1h
0l
1o
0E
0n
1e
0k
0C
1H
0$
1p
1@
1!
1E
1C
1$
#840000
1'
0+
0(
1,
1=
0<
09
18
1M
0S
0J
1P
0Q
1X
1i
0o
0K
1V
0h
0T
1Y
0d
0N
1W
0e
0j
1j
0i
1l
0p
1b
0a
0y
1c
1k
1n
0w
1d
1h
0l
0E
0n
1e
0k
1o
1p
0C
1G
0H
0$
1A
0@
1"
0!
1E
1C
1$
#900000
0'
1+
0-
1)
0>
1<
1:
08
0M
1R
1J
0O
1Q
0g
0o
1K
0h
1T
0d
1N
0e
0j
1j
1l
0p
1a
1y
1k
1n
1d
1g
1h
0l
1o
0E
0n
1e
0k
0C
1H
0$
1p
1@
1!
1E
1C
1$
#960000
0+
0)
0,
0&
0=
0<
0:
07
0L
0R
0J
0P
0Q
0X
0\
1i
0o
0K
0V
0]
0h
0T
0W
0^
0d
0N
0Y
0[
0e
0j
1j
0i
1l
0p
0f
0b
0a
0y
0c
0{
1k
1n
0g
0j
0l
0E
0n
0k
1p
0C
0F
0G
0H
0$
0p
0B
0A
0@
0#
0"
0!
1E
1C
0E
1$
0C
0$
